\relax 
\providecommand\hyper@newdestlabel[2]{}
\providecommand*{\memsetcounter}[2]{}
\providecommand\HyperFirstAtBeginDocument{\AtBeginDocument}
\HyperFirstAtBeginDocument{\ifx\hyper@anchor\@undefined
\global\let\oldcontentsline\contentsline
\gdef\contentsline#1#2#3#4{\oldcontentsline{#1}{#2}{#3}}
\global\let\oldnewlabel\newlabel
\gdef\newlabel#1#2{\newlabelxx{#1}#2}
\gdef\newlabelxx#1#2#3#4#5#6{\oldnewlabel{#1}{{#2}{#3}}}
\AtEndDocument{\ifx\hyper@anchor\@undefined
\let\contentsline\oldcontentsline
\let\newlabel\oldnewlabel
\fi}
\fi}
\global\let\hyper@last\relax 
\gdef\HyperFirstAtBeginDocument#1{#1}
\providecommand*\HyPL@Entry[1]{}
\catcode `"\active 
\HyPL@Entry{0<</S/D>>}
\providecommand \oddpage@label [2]{}
\select@language {russian}
\@writefile{toc}{\select@language {russian}}
\@writefile{lof}{\select@language {russian}}
\@writefile{lot}{\select@language {russian}}
\HyPL@Entry{1<</S/D>>}
\@writefile{toc}{\contentsline {chapter}{Оглавление}{2}{dummy.1}}
\citation{fergus2006removing}
\citation{joshi2009image}
\citation{zhou2014map}
\citation{lecun1998gradient}
\citation{krizhevsky2012imagenet}
\citation{long2015fully}
\citation{kim2015accurate}
\citation{xu2014deep}
\citation{schuler2013machine}
\citation{goodfellow2014generative}
\citation{levin2009understanding}
\citation{krishnan2011blind}
\@writefile{lof}{\addvspace {10pt}}
\@writefile{lot}{\addvspace {10pt}}
\@writefile{toc}{\contentsline {chapter}{\chapternumberline {1}Введение}{3}{chapter.3}}
\newlabel{Intro}{{\M@TitleReference {1}{Введение}}{3}{Введение}{chapter.3}{}}
\citation{simonyan2014very}
\@writefile{lof}{\addvspace {10pt}}
\@writefile{lot}{\addvspace {10pt}}
\@writefile{toc}{\contentsline {chapter}{\chapternumberline {2}Задача устранения размытости изображений}{5}{chapter.4}}
\newlabel{Deblurring}{{\M@TitleReference {2}{Задача устранения размытости изображений}}{5}{Задача устранения размытости изображений}{chapter.4}{}}
\@writefile{toc}{\contentsline {section}{\numberline {2.1}Общая постановка задачи}{5}{section.5}}
\@writefile{toc}{\contentsline {section}{\numberline {2.2}Обзор существующих методов решения}{5}{section.7}}
\@writefile{toc}{\contentsline {section}{\numberline {2.3}Классические методы}{5}{section.12}}
\citation{wiener1949extrapolation}
\citation{lucy1974iterative}
\citation{richardson1972bayesian}
\@writefile{lof}{\contentsline {figure}{\numberline {2.1}{\ignorespaces Пример работы простых алгоритмов в ситуации нарушения предположений их моделей (яркость на картинке частично затухает). Слева-направо: исходное изображение, размытое изображение, восстановленное алгоритмом Люси-Ричардсона, восстановленное алгоритмом Вейнера. Видно, что алгоритмы либо выдают слишком размытое изображение, либо добавляют артефакты-кольца.}}{6}{figure.15}}
\newlabel{fig:simple-methods}{{\M@TitleReference {2.1}{Пример работы простых алгоритмов в ситуации нарушения предположений их моделей (яркость на картинке частично затухает). Слева-направо: исходное изображение, размытое изображение, восстановленное алгоритмом Люси-Ричардсона, восстановленное алгоритмом Вейнера. Видно, что алгоритмы либо выдают слишком размытое изображение, либо добавляют артефакты-кольца.}}{6}{Пример работы простых алгоритмов в ситуации нарушения предположений их моделей (яркость на картинке частично затухает). Слева-направо: исходное изображение, размытое изображение, восстановленное алгоритмом Люси-Ричардсона, восстановленное алгоритмом Вейнера. Видно, что алгоритмы либо выдают слишком размытое изображение, либо добавляют артефакты-кольца}{figure.15}{}}
\@writefile{toc}{\contentsline {section}{\numberline {2.4}Методы, использующие априорную информацию}{6}{section.16}}
\citation{fergus2006removing}
\citation{joshi2009image}
\citation{zhou2014map}
\citation{krishnan2011blind}
\citation{harmeling2010multiframe}
\citation{cho2011handling}
\citation{whyte2014deblurring}
\@writefile{toc}{\contentsline {section}{\numberline {2.5}Методы, явно моделирующие нелинейность}{7}{section.17}}
\citation{krishnan2011blind}
\citation{whyte2014deblurring}
\citation{krishnan2011blind}
\citation{whyte2014deblurring}
\citation{krizhevsky2012imagenet}
\citation{long2015fully}
\citation{kim2015accurate}
\citation{burger2012image}
\citation{kim2015accurate}
\citation{xu2014deep}
\citation{schuler2013machine}
\citation{xu2014deep}
\@writefile{lof}{\contentsline {figure}{\numberline {2.2}{\ignorespaces Пример, когда алгоритмы явно учитывающие нелинейность в модели работают лучше методов из второй и первой групп. Слева-направо: размытое изображение с затуханием яркости, восстановленное алгоритмом Люси-Ричардсона, восстановленное методом~\cite  {krishnan2011blind}, восстановленное методом~\cite  {whyte2014deblurring}, учитывающим нелинейности данного типа. Также, на этом примере видно, что алгоритмы, использующие априорные распределения могут в некоторых ситуациях восстанавливать визуально нереалистичные изображения.}}{8}{figure.19}}
\newlabel{fig:compl-methods}{{\M@TitleReference {2.2}{Пример, когда алгоритмы явно учитывающие нелинейность в модели работают лучше методов из второй и первой групп. Слева-направо: размытое изображение с затуханием яркости, восстановленное алгоритмом Люси-Ричардсона, восстановленное методом~\cite  {krishnan2011blind}, восстановленное методом~\cite  {whyte2014deblurring}, учитывающим нелинейности данного типа. Также, на этом примере видно, что алгоритмы, использующие априорные распределения могут в некоторых ситуациях восстанавливать визуально нереалистичные изображения.}}{8}{Пример, когда алгоритмы явно учитывающие нелинейность в модели работают лучше методов из второй и первой групп. Слева-направо: размытое изображение с затуханием яркости, восстановленное алгоритмом Люси-Ричардсона, восстановленное методом~\cite {krishnan2011blind}, восстановленное методом~\cite {whyte2014deblurring}, учитывающим нелинейности данного типа. Также, на этом примере видно, что алгоритмы, использующие априорные распределения могут в некоторых ситуациях восстанавливать визуально нереалистичные изображения}{figure.19}{}}
\@writefile{toc}{\contentsline {section}{\numberline {2.6}Нейросетевые методы}{8}{section.20}}
\citation{xu2014deep}
\citation{xu2014deep}
\citation{levin2009understanding}
\citation{krishnan2011blind}
\citation{goodfellow2014generative}
\@writefile{lof}{\contentsline {figure}{\numberline {2.3}{\ignorespaces Архитектура сверточной нейронной сети для решения задачи устранения размытости изображений, предложенная в~\cite  {xu2014deep}. Первая часть сети состоит из вертикальных и горизонтальных 1D фильтров, которые моделируют обратное ядро свертки. Вторая часть сети устраняет шум с изображения.}}{9}{figure.22}}
\newlabel{fig:dcnn}{{\M@TitleReference {2.3}{Архитектура сверточной нейронной сети для решения задачи устранения размытости изображений, предложенная в~\cite  {xu2014deep}. Первая часть сети состоит из вертикальных и горизонтальных 1D фильтров, которые моделируют обратное ядро свертки. Вторая часть сети устраняет шум с изображения.}}{9}{Архитектура сверточной нейронной сети для решения задачи устранения размытости изображений, предложенная в~\cite {xu2014deep}. Первая часть сети состоит из вертикальных и горизонтальных 1D фильтров, которые моделируют обратное ядро свертки. Вторая часть сети устраняет шум с изображения}{figure.22}{}}
\citation{nair2010rectified}
\@writefile{lof}{\addvspace {10pt}}
\@writefile{lot}{\addvspace {10pt}}
\@writefile{toc}{\contentsline {chapter}{\chapternumberline {3}Модель конкурирующих сетей}{11}{chapter.23}}
\newlabel{AdversarialNetworks}{{\M@TitleReference {3}{Модель конкурирующих сетей}}{11}{Модель конкурирующих сетей}{chapter.23}{}}
\@writefile{toc}{\contentsline {section}{\numberline {3.1}Сверточные нейронные сети}{11}{section.24}}
\@writefile{lof}{\contentsline {figure}{\numberline {3.1}{\ignorespaces Архитектура сверточной сети LeNet-5 для классификации цифр.}}{11}{figure.26}}
\newlabel{fig:lenet-5}{{\M@TitleReference {3.1}{Архитектура сверточной сети LeNet-5 для классификации цифр.}}{11}{Архитектура сверточной сети LeNet-5 для классификации цифр}{figure.26}{}}
\@writefile{lof}{\contentsline {figure}{\numberline {3.2}{\ignorespaces Базовая структура сверточного слоя.}}{11}{figure.28}}
\newlabel{fig:convolution}{{\M@TitleReference {3.2}{Базовая структура сверточного слоя.}}{11}{Базовая структура сверточного слоя}{figure.28}{}}
\citation{hinton2006fast}
\citation{salakhutdinov2009deep}
\citation{eslami2014shape}
\citation{goodfellow2014generative}
\@writefile{lof}{\contentsline {figure}{\numberline {3.3}{\ignorespaces Модельный пример того, как обучаются конкурирующие сети. Одновременно обновляется дискриминативная сеть $D$ (синяя пунктирная линия) так, чтобы различать объекты из распределения данных $p_{data}$ (черная точечная линия) и распределения, порождаемого генеративной сетью $p_g$ (зеленая сплошная линия). Нижняя горизонтальная линия соответствует области из которой генерируются выборки из модельного распределения $p_z$. Горизонтальная линия выше — это область определения данных, куда отображаются модельные объекты с помощью сети $G$. На рисунке (a) изображена ситуация, когда модель уже практически обучилась: распределение $p_g$ похоже на распределение $p_{data}$, а сеть $D$ достаточно точно классифицирует объекты. На рисунке (b) изображена та же модель после выполнения внутреннего цикла алгоритма: сеть $D$ стала оптимально классифицировать объекты. На рисунке (c) изображена модель после обновления параметров сети $G$: градиент сети $D$ направляет сеть $G$ в области, которые с высокой вероятностью будут классифицироваться как настоящие данные. На рисунке (d) изображена финальная модель после нескольких итераций: $p_g = p_{data}$, $D(x) = 0.5$.}}{12}{figure.31}}
\newlabel{fig:algo-advnets}{{\M@TitleReference {3.3}{Модельный пример того, как обучаются конкурирующие сети. Одновременно обновляется дискриминативная сеть $D$ (синяя пунктирная линия) так, чтобы различать объекты из распределения данных $p_{data}$ (черная точечная линия) и распределения, порождаемого генеративной сетью $p_g$ (зеленая сплошная линия). Нижняя горизонтальная линия соответствует области из которой генерируются выборки из модельного распределения $p_z$. Горизонтальная линия выше — это область определения данных, куда отображаются модельные объекты с помощью сети $G$. На рисунке (a) изображена ситуация, когда модель уже практически обучилась: распределение $p_g$ похоже на распределение $p_{data}$, а сеть $D$ достаточно точно классифицирует объекты. На рисунке (b) изображена та же модель после выполнения внутреннего цикла алгоритма: сеть $D$ стала оптимально классифицировать объекты. На рисунке (c) изображена модель после обновления параметров сети $G$: градиент сети $D$ направляет сеть $G$ в области, которые с высокой вероятностью будут классифицироваться как настоящие данные. На рисунке (d) изображена финальная модель после нескольких итераций: $p_g = p_{data}$, $D(x) = 0.5$.}}{12}{Модельный пример того, как обучаются конкурирующие сети. Одновременно обновляется дискриминативная сеть $D$ (синяя пунктирная линия) так, чтобы различать объекты из распределения данных $p_{data}$ (черная точечная линия) и распределения, порождаемого генеративной сетью $p_g$ (зеленая сплошная линия). Нижняя горизонтальная линия соответствует области из которой генерируются выборки из модельного распределения $p_z$. Горизонтальная линия выше — это область определения данных, куда отображаются модельные объекты с помощью сети $G$. На рисунке (a) изображена ситуация, когда модель уже практически обучилась: распределение $p_g$ похоже на распределение $p_{data}$, а сеть $D$ достаточно точно классифицирует объекты. На рисунке (b) изображена та же модель после выполнения внутреннего цикла алгоритма: сеть $D$ стала оптимально классифицировать объекты. На рисунке (c) изображена модель после обновления параметров сети $G$: градиент сети $D$ направляет сеть $G$ в области, которые с высокой вероятностью будут классифицироваться как настоящие данные. На рисунке (d) изображена финальная модель после нескольких итераций: $p_g = p_{data}$, $D(x) = 0.5$}{figure.31}{}}
\@writefile{toc}{\contentsline {section}{\numberline {3.2}Конкурирующие сети}{12}{section.29}}
\citation{polyak1964some}
\citation{kingma2014adam}
\citation{denton2015deep}
\citation{radford2015unsupervised}
\@writefile{loa}{\contentsline {algorithm}{\numberline {1}{\ignorespaces Стохастический градиентный спуск для обучения конкурирующих сетей. Шаг градиентного спуска может быть выполнен с помощью любого стандартного алгоритма. Авторы статьи в своих экспериментах использовали метод инерции~\cite  {polyak1964some}. В данной работе использовался метод Adam~\cite  {kingma2014adam}.}}{13}{algorithm.32}}
\newlabel{alg:advnets}{{\M@TitleReference {1}{Конкурирующие сети}}{13}{Конкурирующие сети}{algorithm.32}{}}
\citation{ioffe2015batch}
\citation{nair2010rectified}
\citation{maas2013rectifier}
\@writefile{lof}{\contentsline {figure}{\numberline {3.4}{\ignorespaces Примеры изображений, полученных с помощью модели конкурирующих сетей, реализованной в рамках данной работы.}}{14}{figure.34}}
\newlabel{fig:advnets-faces}{{\M@TitleReference {3.4}{Примеры изображений, полученных с помощью модели конкурирующих сетей, реализованной в рамках данной работы.}}{14}{Примеры изображений, полученных с помощью модели конкурирующих сетей, реализованной в рамках данной работы}{figure.34}{}}
\citation{wang2004image}
\citation{johnson2016perceptual}
\citation{kundu2015full}
\citation{hanhart2013benchmarking}
\citation{wang2009mean}
\citation{huynh2008scope}
\@writefile{lof}{\addvspace {10pt}}
\@writefile{lot}{\addvspace {10pt}}
\@writefile{toc}{\contentsline {chapter}{\chapternumberline {4}Исследование применимости конкурирующих сетей для решения задачи устранения размытости изображений}{15}{chapter.35}}
\newlabel{AdvNetsResearch}{{\M@TitleReference {4}{Исследование применимости конкурирующих сетей для решения задачи устранения размытости изображений}}{15}{Исследование применимости конкурирующих сетей для решения задачи устранения размытости изображений}{chapter.35}{}}
\@writefile{toc}{\contentsline {section}{\numberline {4.1}Метрики качества}{15}{section.36}}
\citation{xu2014deep}
\citation{radford2015unsupervised}
\citation{deng2009imagenet}
\@writefile{toc}{\contentsline {section}{\numberline {4.2}Стандартная модель конкурирующих сетей}{16}{section.37}}
\citation{he2015deep}
\@writefile{lof}{\contentsline {figure}{\numberline {4.1}{\ignorespaces Базовая модель конкурирующих сетей для решения задачи устранения размытости изображений.}}{17}{figure.39}}
\newlabel{fig:model1}{{\M@TitleReference {4.1}{Базовая модель конкурирующих сетей для решения задачи устранения размытости изображений.}}{17}{Базовая модель конкурирующих сетей для решения задачи устранения размытости изображений}{figure.39}{}}
\@writefile{lof}{\contentsline {figure}{\numberline {4.2}{\ignorespaces Результат работы первой предложенной модели конкурирующих сетей для задачи устранения размытости изображений. Верхний ряд: размытые изображения, средний ряд: восстановленные изображения, нижний ряд: исходные изображения. На рисунке (a) показан результат работы исходной модели. На рисунке (b) модели, с синхронизированным обучением сетей $D$ и $G$ (сеть $D$ получает на вход оригиналы изображений, поданных сети $G$). На рисунке (c) показан результат работы модели с добавлением остаточного слоя.}}{18}{figure.41}}
\newlabel{fig:model1-res}{{\M@TitleReference {4.2}{Результат работы первой предложенной модели конкурирующих сетей для задачи устранения размытости изображений. Верхний ряд: размытые изображения, средний ряд: восстановленные изображения, нижний ряд: исходные изображения. На рисунке (a) показан результат работы исходной модели. На рисунке (b) модели, с синхронизированным обучением сетей $D$ и $G$ (сеть $D$ получает на вход оригиналы изображений, поданных сети $G$). На рисунке (c) показан результат работы модели с добавлением остаточного слоя.}}{18}{Результат работы первой предложенной модели конкурирующих сетей для задачи устранения размытости изображений. Верхний ряд: размытые изображения, средний ряд: восстановленные изображения, нижний ряд: исходные изображения. На рисунке (a) показан результат работы исходной модели. На рисунке (b) модели, с синхронизированным обучением сетей $D$ и $G$ (сеть $D$ получает на вход оригиналы изображений, поданных сети $G$). На рисунке (c) показан результат работы модели с добавлением остаточного слоя}{figure.41}{}}
\@writefile{toc}{\contentsline {section}{\numberline {4.3}Комбинирование стандартного и конкурирующего обучения}{18}{section.42}}
\@writefile{lof}{\contentsline {figure}{\numberline {4.3}{\ignorespaces Модель конкурирующих сетей для решения задачи устранения размытости изображений, комбинирующая стандартное и конкурирующее обучение.}}{19}{figure.44}}
\newlabel{fig:model2}{{\M@TitleReference {4.3}{Модель конкурирующих сетей для решения задачи устранения размытости изображений, комбинирующая стандартное и конкурирующее обучение.}}{19}{Модель конкурирующих сетей для решения задачи устранения размытости изображений, комбинирующая стандартное и конкурирующее обучение}{figure.44}{}}
\citation{tieleman2012lecture}
\@writefile{lof}{\contentsline {figure}{\numberline {4.4}{\ignorespaces Сравнение изначальной и итоговой архитектуры генеративной сети. Слева-направо: исходное изображение, размытое изображение, восстановленное с помощью изначальной архитектуры, восстановленное с помощью итоговой архитектуры. В данном случае для лучшего сравнения использовался параметр $\lambda = 0$ (отсутствие конкурирующего обучения), так как это делает модель значительно стабильней. Видно, что изображения, полученные с помощью итоговой архитектуры значительно более резкие.}}{21}{figure.48}}
\newlabel{fig:comp-archs}{{\M@TitleReference {4.4}{Сравнение изначальной и итоговой архитектуры генеративной сети. Слева-направо: исходное изображение, размытое изображение, восстановленное с помощью изначальной архитектуры, восстановленное с помощью итоговой архитектуры. В данном случае для лучшего сравнения использовался параметр $\lambda = 0$ (отсутствие конкурирующего обучения), так как это делает модель значительно стабильней. Видно, что изображения, полученные с помощью итоговой архитектуры значительно более резкие.}}{21}{Сравнение изначальной и итоговой архитектуры генеративной сети. Слева-направо: исходное изображение, размытое изображение, восстановленное с помощью изначальной архитектуры, восстановленное с помощью итоговой архитектуры. В данном случае для лучшего сравнения использовался параметр $\lambda = 0$ (отсутствие конкурирующего обучения), так как это делает модель значительно стабильней. Видно, что изображения, полученные с помощью итоговой архитектуры значительно более резкие}{figure.48}{}}
\@writefile{lof}{\contentsline {figure}{\numberline {4.5}{\ignorespaces Результат работы второй предложенной модели. Слева-направо: исходное изображение, размытое изображение, восстановленное без использования конкурирующего обучения ($\lambda = 0$), восстановленная с использованием конкурирующего обучения.}}{21}{figure.51}}
\newlabel{fig:model2-res}{{\M@TitleReference {4.5}{Результат работы второй предложенной модели. Слева-направо: исходное изображение, размытое изображение, восстановленное без использования конкурирующего обучения ($\lambda = 0$), восстановленная с использованием конкурирующего обучения.}}{21}{Результат работы второй предложенной модели. Слева-направо: исходное изображение, размытое изображение, восстановленное без использования конкурирующего обучения ($\lambda = 0$), восстановленная с использованием конкурирующего обучения}{figure.51}{}}
\@writefile{lof}{\contentsline {figure}{\numberline {4.6}{\ignorespaces Пример осцилляции резкости при обучении конкурирующих сетей с помощью второго подхода. Левое изображение получено с помощью предобученной модели без использования конкурирующего обучения. Каждое следующее изображение получено через несколько итераций комбинированного обучения. Видно, что резкость на изображениях действительно начинает осциллировать.}}{22}{figure.53}}
\newlabel{fig:oscillation}{{\M@TitleReference {4.6}{Пример осцилляции резкости при обучении конкурирующих сетей с помощью второго подхода. Левое изображение получено с помощью предобученной модели без использования конкурирующего обучения. Каждое следующее изображение получено через несколько итераций комбинированного обучения. Видно, что резкость на изображениях действительно начинает осциллировать.}}{22}{Пример осцилляции резкости при обучении конкурирующих сетей с помощью второго подхода. Левое изображение получено с помощью предобученной модели без использования конкурирующего обучения. Каждое следующее изображение получено через несколько итераций комбинированного обучения. Видно, что резкость на изображениях действительно начинает осциллировать}{figure.53}{}}
\@writefile{toc}{\contentsline {section}{\numberline {4.4}Использование скрытых представлений, формируемых дискриминативной сетью в функции ошибки}{22}{section.54}}
\@writefile{lof}{\contentsline {figure}{\numberline {4.7}{\ignorespaces Модель конкурирующих сетей для решения задачи устранения размытости изображений, использующая скрытые представления, формируемые дискриминативной сетью.}}{23}{figure.56}}
\newlabel{fig:model3}{{\M@TitleReference {4.7}{Модель конкурирующих сетей для решения задачи устранения размытости изображений, использующая скрытые представления, формируемые дискриминативной сетью.}}{23}{Модель конкурирующих сетей для решения задачи устранения размытости изображений, использующая скрытые представления, формируемые дискриминативной сетью}{figure.56}{}}
\@writefile{lof}{\contentsline {figure}{\numberline {4.8}{\ignorespaces Результат работы третьей предложенной модели. Слева-направо: исходное изображение, размытое изображение, восстановленное методом №2, восстановленное методом №3. Видно, что изображения становятся более резкими, но резкость все еще достигается за счет равномерного зашумления изображений.}}{23}{figure.58}}
\newlabel{fig:model3-res}{{\M@TitleReference {4.8}{Результат работы третьей предложенной модели. Слева-направо: исходное изображение, размытое изображение, восстановленное методом №2, восстановленное методом №3. Видно, что изображения становятся более резкими, но резкость все еще достигается за счет равномерного зашумления изображений.}}{23}{Результат работы третьей предложенной модели. Слева-направо: исходное изображение, размытое изображение, восстановленное методом №2, восстановленное методом №3. Видно, что изображения становятся более резкими, но резкость все еще достигается за счет равномерного зашумления изображений}{figure.58}{}}
\@writefile{toc}{\contentsline {section}{\numberline {4.5}Минимизация функции ошибки, порождаемой глубинной нейронной сетью}{23}{section.59}}
\citation{simonyan2014very}
\citation{xu2014deep}
\citation{cho2011handling}
\citation{whyte2014deblurring}
\citation{xu2014deep}
\citation{cho2011handling}
\citation{whyte2014deblurring}
\@writefile{lof}{\contentsline {figure}{\numberline {4.9}{\ignorespaces Схема итогового метода для решения задачи устранения размытости изображений, основанного на минимизации $L_2$ нормы скрытых представлений, формируемых глубинной нейронной сетью, предобученной для классификации изображений.}}{24}{figure.61}}
\newlabel{fig:final-model}{{\M@TitleReference {4.9}{Схема итогового метода для решения задачи устранения размытости изображений, основанного на минимизации $L_2$ нормы скрытых представлений, формируемых глубинной нейронной сетью, предобученной для классификации изображений.}}{24}{Схема итогового метода для решения задачи устранения размытости изображений, основанного на минимизации $L_2$ нормы скрытых представлений, формируемых глубинной нейронной сетью, предобученной для классификации изображений}{figure.61}{}}
\citation{xu2014deep}
\citation{cho2011handling}
\citation{whyte2014deblurring}
\@writefile{lof}{\contentsline {figure}{\numberline {4.10}{\ignorespaces Сравнение предложенного метода с современными алгоритмами решения задачи устранения размытости изображений. В верхнем ряду слева-направо: исходное изображение, размытое изображение, изображение, восстановленное предложенным методом. В нижнем ряду слева-направо: метод~\cite  {xu2014deep}, метод~\cite  {cho2011handling} метод~\cite  {whyte2014deblurring}. Видно, что предложенный метод восстанавливает более резкие изображения. }}{25}{figure.63}}
\newlabel{fig:final-res}{{\M@TitleReference {4.10}{Сравнение предложенного метода с современными алгоритмами решения задачи устранения размытости изображений. В верхнем ряду слева-направо: исходное изображение, размытое изображение, изображение, восстановленное предложенным методом. В нижнем ряду слева-направо: метод~\cite  {xu2014deep}, метод~\cite  {cho2011handling} метод~\cite  {whyte2014deblurring}. Видно, что предложенный метод восстанавливает более резкие изображения. }}{25}{Сравнение предложенного метода с современными алгоритмами решения задачи устранения размытости изображений. В верхнем ряду слева-направо: исходное изображение, размытое изображение, изображение, восстановленное предложенным методом. В нижнем ряду слева-направо: метод~\cite {xu2014deep}, метод~\cite {cho2011handling} метод~\cite {whyte2014deblurring}. Видно, что предложенный метод восстанавливает более резкие изображения. }{figure.63}{}}
\citation{xu2014deep}
\citation{cho2011handling}
\citation{whyte2014deblurring}
\@writefile{lot}{\contentsline {table}{\numberline {4.1}{\ignorespaces Количественное сравнение современных алгоритмов с предложенным методом.}}{26}{table.65}}
\newlabel{table:res}{{\M@TitleReference {4.1}{Количественное сравнение современных алгоритмов с предложенным методом.}}{26}{Количественное сравнение современных алгоритмов с предложенным методом}{table.65}{}}
\bibstyle{bibstyles/ieee}
\bibdata{chapters/Bibliography}
\@writefile{lof}{\addvspace {10pt}}
\@writefile{lot}{\addvspace {10pt}}
\@writefile{toc}{\contentsline {chapter}{\chapternumberline {5}Заключение}{27}{chapter.66}}
\newlabel{Conclusion}{{\M@TitleReference {5}{Заключение}}{27}{Заключение}{chapter.66}{}}
\bibcite{fergus2006removing}{{1}{}{{}}{{}}}
\bibcite{joshi2009image}{{2}{}{{}}{{}}}
\bibcite{zhou2014map}{{3}{}{{}}{{}}}
\bibcite{lecun1998gradient}{{4}{}{{}}{{}}}
\bibcite{krizhevsky2012imagenet}{{5}{}{{}}{{}}}
\bibcite{long2015fully}{{6}{}{{}}{{}}}
\bibcite{kim2015accurate}{{7}{}{{}}{{}}}
\bibcite{xu2014deep}{{8}{}{{}}{{}}}
\bibcite{schuler2013machine}{{9}{}{{}}{{}}}
\bibcite{goodfellow2014generative}{{10}{}{{}}{{}}}
\bibcite{levin2009understanding}{{11}{}{{}}{{}}}
\bibcite{krishnan2011blind}{{12}{}{{}}{{}}}
\bibcite{simonyan2014very}{{13}{}{{}}{{}}}
\bibcite{wiener1949extrapolation}{{14}{}{{}}{{}}}
\bibcite{lucy1974iterative}{{15}{}{{}}{{}}}
\bibcite{richardson1972bayesian}{{16}{}{{}}{{}}}
\bibcite{harmeling2010multiframe}{{17}{}{{}}{{}}}
\@writefile{toc}{\contentsline {chapter}{Литература}{28}{section*.68}}
\bibcite{cho2011handling}{{18}{}{{}}{{}}}
\bibcite{whyte2014deblurring}{{19}{}{{}}{{}}}
\bibcite{burger2012image}{{20}{}{{}}{{}}}
\bibcite{nair2010rectified}{{21}{}{{}}{{}}}
\bibcite{hinton2006fast}{{22}{}{{}}{{}}}
\bibcite{salakhutdinov2009deep}{{23}{}{{}}{{}}}
\bibcite{eslami2014shape}{{24}{}{{}}{{}}}
\bibcite{polyak1964some}{{25}{}{{}}{{}}}
\bibcite{kingma2014adam}{{26}{}{{}}{{}}}
\bibcite{denton2015deep}{{27}{}{{}}{{}}}
\bibcite{radford2015unsupervised}{{28}{}{{}}{{}}}
\bibcite{ioffe2015batch}{{29}{}{{}}{{}}}
\bibcite{maas2013rectifier}{{30}{}{{}}{{}}}
\bibcite{wang2004image}{{31}{}{{}}{{}}}
\bibcite{johnson2016perceptual}{{32}{}{{}}{{}}}
\bibcite{kundu2015full}{{33}{}{{}}{{}}}
\bibcite{hanhart2013benchmarking}{{34}{}{{}}{{}}}
\bibcite{wang2009mean}{{35}{}{{}}{{}}}
\bibcite{huynh2008scope}{{36}{}{{}}{{}}}
\bibcite{deng2009imagenet}{{37}{}{{}}{{}}}
\bibcite{he2015deep}{{38}{}{{}}{{}}}
\bibcite{tieleman2012lecture}{{39}{}{{}}{{}}}
\providecommand\NAT@force@numbers{}\NAT@force@numbers
\newlabel{Bibliography}{{\M@TitleReference {5}{Заключение}}{30}{Заключение}{section*.68}{}}
\memsetcounter{lastsheet}{31}
\memsetcounter{lastpage}{30}
